Bank Marketing Campaign
…
## # A tibble: 28 x 6
##    col_1    col_2       corr  p_value    lower   upper
##    <chr>    <chr>      <dbl>    <dbl>    <dbl>   <dbl>
##  1 previous pdays     0.585  0.        0.561    0.608 
##  2 campaign day       0.154  1.46e-22  0.119    0.188 
##  3 pdays    day      -0.0959 1.25e- 9 -0.131   -0.0606
##  4 pdays    campaign -0.0939 2.68e- 9 -0.129   -0.0587
##  5 balance  age       0.0797 4.57e- 7  0.0443   0.115 
##  6 previous campaign -0.0774 9.51e- 7 -0.113   -0.0421
##  7 campaign duration -0.0698 9.96e- 6 -0.105   -0.0344
##  8 previous day      -0.0654 3.52e- 5 -0.101   -0.0300
##  9 previous balance   0.0315 4.64e- 2 -0.00394  0.0669
## 10 duration day      -0.0231 1.44e- 1 -0.0585   0.0123
## # ... with 18 more rows
…
May has the most number of client contacts but also the lowest proportion of term deposit subscribers. Additionally the months with the highest proportion of subscribers have some of the lowest numbers of contacts indicating a negative relationship between these two variables. It may just be that outside of the period of heavy calling (May - August), clients were selected more carefully for contact or met some other criteria.

df %>%
  group_by(day) %>%
  summarise (n = n()) %>%
  mutate(freq = n / sum(n))

## # A tibble: 31 x 3
##      day     n    freq
##    <int> <int>   <dbl>
##  1     1    25 0.00625
##  2     2   101 0.0253 
##  3     3    90 0.0225 
##  4     4   123 0.0308 
##  5     5   148 0.0370 
##  6     6   172 0.0430 
##  7     7   163 0.0408 
##  8     8   161 0.0403 
##  9     9   145 0.0363 
## 10    10    45 0.0113 
## # ... with 21 more rows
…
